﻿{
	"0б_1а" : "Ba.wav",
	"0ч_1а" : "Cha.wav",
	"0т_1о" : "To.wav",
	"0к_1а" : "Ka.wav",
	"0н_0а" : "Na-.wav",
	"0н_1а" : "Na+.wav",
	"0р_1а" : "Ra.wav",
	"1с_1і" : "Si.wav",
	"0в_0а" : "Va.wav",
	"0д_1о_0б_0р_0ы" : "Dobry.wav",
	"1дз_1э_1н" : "Dzen.wav"
}